<?xml version="1.0" encoding="utf-8"?>
<!-- Generator: Adobe Illustrator 23.0.2, SVG Export Plug-In . SVG Version: 6.00 Build 0)  -->
<svg version="1.1" id="Layer_1" xmlns="http://www.w3.org/2000/svg" xmlns:xlink="http://www.w3.org/1999/xlink" x="0px" y="0px"
	 viewBox="0 0 576.2 300.7" style="enable-background:new 0 0 576.2 300.7;" xml:space="preserve">
<style type="text/css">
	.st0{opacity:0.6;fill:#FFFFFF;enable-background:new    ;}
	.st1{fill:#231F20;}
	.st2{fill:none;stroke:#231F20;stroke-width:0.3275;stroke-miterlimit:10;}
	.st3{fill:#37B34A;}
	.st4{fill:#FFFFFF;}
</style>
<rect class="st0" width="576.2" height="300.1"/>
<rect x="36.3" y="296.9" width="31.6" height="3.8"/>
<rect x="506.8" y="296.9" width="31.6" height="3.8"/>
<rect x="36.3" y="0.5" width="31.6" height="3.8"/>
<rect x="506.8" y="0.5" width="31.6" height="3.8"/>
<g>
	<path class="st1" d="M136.7,259.6l-3.3-12.5h2.6l2.4,9.3l2.6-9.3h2.1l2.6,9.2l2.4-9.2h2.4l-3.3,12.5h-2.8l-2.4-8.3l-2.3,8.3H136.7z
		"/>
	<path class="st1" d="M152.8,256.1c0.3,1.1,1.1,1.7,2.5,1.7c0.9,0,1.5-0.3,2-0.9l1.9,1.1c-0.9,1.3-2.2,1.9-3.9,1.9
		c-1.5,0-2.7-0.4-3.6-1.3c-0.9-0.9-1.3-2-1.3-3.4c0-1.3,0.4-2.5,1.3-3.4c0.9-0.9,2-1.3,3.4-1.3c1.3,0,2.4,0.4,3.2,1.4
		c0.9,0.9,1.3,2,1.3,3.4c0,0.3,0,0.6-0.1,0.9H152.8z M152.8,254.3h4.6c-0.1-0.6-0.4-1.1-0.8-1.4c-0.4-0.3-0.9-0.4-1.4-0.4
		c-0.6,0-1.1,0.2-1.5,0.5C153.2,253.3,152.9,253.7,152.8,254.3z"/>
	<path class="st1" d="M170,259.8c-1.3,0-2.5-0.5-3.4-1.4c-0.9-0.9-1.3-2-1.3-3.4s0.4-2.4,1.3-3.4c0.9-0.9,2-1.4,3.4-1.4
		c0.9,0,1.7,0.2,2.4,0.6c0.7,0.4,1.3,1,1.6,1.7l-2,1.2c-0.2-0.4-0.4-0.7-0.8-0.9c-0.4-0.2-0.8-0.3-1.2-0.3c-0.7,0-1.3,0.2-1.7,0.7
		c-0.5,0.5-0.7,1-0.7,1.8c0,0.7,0.2,1.3,0.7,1.7c0.5,0.5,1,0.7,1.7,0.7c0.5,0,0.9-0.1,1.2-0.3c0.4-0.2,0.6-0.5,0.8-0.9l2,1.1
		c-0.4,0.7-0.9,1.3-1.7,1.7C171.6,259.6,170.8,259.8,170,259.8z"/>
	<path class="st1" d="M182.7,258.5c-0.9,0.9-2,1.4-3.4,1.4c-1.3,0-2.4-0.5-3.3-1.4c-0.9-0.9-1.4-2-1.4-3.3c0-1.3,0.5-2.4,1.4-3.3
		c0.9-0.9,2-1.4,3.3-1.4c1.3,0,2.4,0.5,3.4,1.4c0.9,0.9,1.4,2,1.4,3.3C184,256.4,183.6,257.5,182.7,258.5z M177.6,256.9
		c0.5,0.5,1,0.7,1.7,0.7c0.7,0,1.3-0.2,1.7-0.7c0.5-0.5,0.7-1.1,0.7-1.8c0-0.7-0.2-1.3-0.7-1.8c-0.5-0.5-1-0.7-1.7-0.7
		c-0.7,0-1.3,0.2-1.7,0.7c-0.5,0.5-0.7,1.1-0.7,1.8C176.9,255.8,177.1,256.4,177.6,256.9z"/>
	<path class="st1" d="M190.6,250.4c1,0,1.8,0.3,2.4,1c0.6,0.7,1,1.6,1,2.7v5.5h-2.3v-5.2c0-0.6-0.2-1-0.5-1.4s-0.8-0.5-1.3-0.5
		c-0.6,0-1.1,0.2-1.4,0.6c-0.4,0.4-0.5,0.9-0.5,1.7v4.8h-2.3v-8.9h2.3v1C188.5,250.8,189.4,250.4,190.6,250.4z"/>
	<path class="st1" d="M198.1,253.2c0,0.2,0.2,0.4,0.5,0.6c0.3,0.1,0.7,0.3,1.2,0.4c0.5,0.1,0.9,0.3,1.4,0.4c0.5,0.2,0.8,0.5,1.2,0.9
		c0.3,0.4,0.5,0.9,0.5,1.5c0,0.9-0.3,1.6-1,2.1c-0.7,0.5-1.5,0.7-2.6,0.7c-1.8,0-3.1-0.7-3.7-2.1l2-1.1c0.3,0.8,0.8,1.2,1.7,1.2
		c0.8,0,1.2-0.3,1.2-0.8c0-0.2-0.2-0.4-0.5-0.6c-0.3-0.1-0.7-0.3-1.2-0.4c-0.5-0.1-0.9-0.3-1.4-0.4c-0.5-0.2-0.8-0.5-1.2-0.8
		c-0.3-0.4-0.5-0.9-0.5-1.5c0-0.9,0.3-1.6,1-2.1c0.6-0.5,1.5-0.8,2.4-0.8c0.7,0,1.4,0.2,2,0.5c0.6,0.3,1.1,0.8,1.4,1.4l-2,1.1
		c-0.3-0.6-0.8-0.9-1.4-0.9c-0.3,0-0.5,0.1-0.7,0.2C198.2,252.8,198.1,253,198.1,253.2z"/>
	<path class="st1" d="M210,250.7h2.3v8.9H210v-1c-0.6,0.8-1.4,1.2-2.7,1.2c-1,0-1.8-0.3-2.4-1c-0.6-0.7-1-1.6-1-2.7v-5.5h2.3v5.2
		c0,0.6,0.2,1.1,0.5,1.4c0.3,0.3,0.7,0.5,1.3,0.5c0.6,0,1.1-0.2,1.4-0.6c0.4-0.4,0.5-0.9,0.5-1.7V250.7z"/>
	<path class="st1" d="M214.4,259.6v-13h2.3v13C216.8,259.6,214.4,259.6,214.4,259.6z"/>
	<path class="st1" d="M224,252.9h-2v3.7c0,0.3,0.1,0.5,0.2,0.7c0.2,0.1,0.4,0.2,0.7,0.2c0.3,0,0.7,0,1.1,0v2.1
		c-1.6,0.2-2.7,0-3.3-0.4c-0.6-0.5-1-1.3-1-2.5v-3.7h-1.6v-2.2h1.6v-1.8l2.3-0.7v2.5h2V252.9z"/>
	<path class="st1" d="M235.1,250.4c1,0,1.8,0.3,2.4,1c0.6,0.7,1,1.6,1,2.7v5.5h-2.3v-5.2c0-0.6-0.2-1-0.5-1.4s-0.8-0.5-1.3-0.5
		c-0.6,0-1.1,0.2-1.4,0.6c-0.4,0.4-0.5,0.9-0.5,1.7v4.8h-2.3v-12.5h2.3v4.6C233,250.8,233.9,250.4,235.1,250.4z"/>
	<path class="st1" d="M248.1,258.5c-0.9,0.9-2,1.4-3.4,1.4c-1.3,0-2.4-0.5-3.3-1.4c-0.9-0.9-1.4-2-1.4-3.3c0-1.3,0.5-2.4,1.4-3.3
		c0.9-0.9,2-1.4,3.3-1.4c1.3,0,2.4,0.5,3.4,1.4c0.9,0.9,1.4,2,1.4,3.3C249.5,256.4,249,257.5,248.1,258.5z M243,256.9
		c0.5,0.5,1,0.7,1.7,0.7c0.7,0,1.3-0.2,1.7-0.7c0.5-0.5,0.7-1.1,0.7-1.8c0-0.7-0.2-1.3-0.7-1.8c-0.5-0.5-1-0.7-1.7-0.7
		c-0.7,0-1.3,0.2-1.7,0.7c-0.5,0.5-0.7,1.1-0.7,1.8C242.3,255.8,242.5,256.4,243,256.9z"/>
	<path class="st1" d="M256,252.9h-2v3.7c0,0.3,0.1,0.5,0.2,0.7s0.4,0.2,0.7,0.2s0.7,0,1.1,0v2.1c-1.6,0.2-2.7,0-3.3-0.4
		c-0.6-0.5-1-1.3-1-2.5v-3.7h-1.6v-2.2h1.6v-1.8l2.3-0.7v2.5h2V252.9z"/>
	<path class="st1" d="M259.3,256.1c0.3,1.1,1.1,1.7,2.5,1.7c0.9,0,1.5-0.3,2-0.9l1.9,1.1c-0.9,1.3-2.2,1.9-3.9,1.9
		c-1.5,0-2.7-0.4-3.6-1.3c-0.9-0.9-1.3-2-1.3-3.4c0-1.3,0.4-2.5,1.3-3.4c0.9-0.9,2-1.3,3.4-1.3c1.3,0,2.4,0.4,3.2,1.4
		c0.9,0.9,1.3,2,1.3,3.4c0,0.3,0,0.6-0.1,0.9H259.3z M259.3,254.3h4.6c-0.1-0.6-0.4-1.1-0.8-1.4c-0.4-0.3-0.9-0.4-1.4-0.4
		c-0.6,0-1.1,0.2-1.5,0.5C259.6,253.3,259.4,253.7,259.3,254.3z"/>
	<path class="st1" d="M267.7,259.6v-13h2.3v13C270,259.6,267.7,259.6,267.7,259.6z"/>
	<path class="st1" d="M274.2,253.2c0,0.2,0.2,0.4,0.5,0.6c0.3,0.1,0.7,0.3,1.2,0.4c0.5,0.1,0.9,0.3,1.4,0.4c0.5,0.2,0.8,0.5,1.2,0.9
		c0.3,0.4,0.5,0.9,0.5,1.5c0,0.9-0.3,1.6-1,2.1c-0.7,0.5-1.5,0.7-2.6,0.7c-1.8,0-3.1-0.7-3.7-2.1l2-1.1c0.3,0.8,0.8,1.2,1.7,1.2
		c0.8,0,1.2-0.3,1.2-0.8c0-0.2-0.2-0.4-0.5-0.6c-0.3-0.1-0.7-0.3-1.2-0.4c-0.5-0.1-0.9-0.3-1.4-0.4c-0.5-0.2-0.8-0.5-1.2-0.8
		c-0.3-0.4-0.5-0.9-0.5-1.5c0-0.9,0.3-1.6,1-2.1c0.6-0.5,1.5-0.8,2.4-0.8c0.7,0,1.4,0.2,2,0.5c0.6,0.3,1.1,0.8,1.4,1.4l-2,1.1
		c-0.3-0.6-0.8-0.9-1.4-0.9c-0.3,0-0.5,0.1-0.7,0.2C274.3,252.8,274.2,253,274.2,253.2z"/>
	<path class="st1" d="M283.2,257.1l-1.3,5H280l0.7-5H283.2z"/>
	<path class="st1" d="M291.9,252.2c0.2-0.6,0.6-1,1.1-1.3c0.5-0.3,1-0.4,1.7-0.4v2.6c-0.7-0.1-1.3,0.1-1.9,0.4
		c-0.5,0.4-0.8,1-0.8,1.8v4.3h-2.3v-8.9h2.3L291.9,252.2L291.9,252.2z"/>
	<path class="st1" d="M297.5,256.1c0.3,1.1,1.2,1.7,2.5,1.7c0.9,0,1.5-0.3,2-0.9l1.9,1.1c-0.9,1.3-2.2,1.9-3.9,1.9
		c-1.5,0-2.7-0.4-3.6-1.3c-0.9-0.9-1.3-2-1.3-3.4c0-1.3,0.4-2.5,1.3-3.4c0.9-0.9,2-1.3,3.4-1.3c1.3,0,2.4,0.4,3.2,1.4
		c0.9,0.9,1.3,2,1.3,3.4c0,0.3,0,0.6-0.1,0.9H297.5z M297.5,254.3h4.6c-0.1-0.6-0.4-1.1-0.8-1.4c-0.4-0.3-0.9-0.4-1.4-0.4
		c-0.6,0-1.1,0.2-1.5,0.5C297.9,253.3,297.6,253.7,297.5,254.3z"/>
	<path class="st1" d="M307.7,253.2c0,0.2,0.2,0.4,0.5,0.6c0.3,0.1,0.7,0.3,1.2,0.4c0.4,0.1,0.9,0.3,1.4,0.4c0.5,0.2,0.8,0.5,1.2,0.9
		c0.3,0.4,0.5,0.9,0.5,1.5c0,0.9-0.3,1.6-1,2.1c-0.7,0.5-1.5,0.7-2.6,0.7c-1.8,0-3.1-0.7-3.7-2.1l2-1.1c0.3,0.8,0.8,1.2,1.7,1.2
		c0.8,0,1.2-0.3,1.2-0.8c0-0.2-0.2-0.4-0.5-0.6c-0.3-0.1-0.7-0.3-1.2-0.4c-0.5-0.1-0.9-0.3-1.4-0.4c-0.4-0.2-0.8-0.5-1.2-0.8
		c-0.3-0.4-0.5-0.9-0.5-1.5c0-0.9,0.3-1.6,1-2.1c0.6-0.5,1.5-0.8,2.4-0.8c0.7,0,1.4,0.2,2,0.5c0.6,0.3,1.1,0.8,1.4,1.4l-2,1.1
		c-0.3-0.6-0.8-0.9-1.4-0.9c-0.3,0-0.5,0.1-0.7,0.2C307.8,252.8,307.7,253,307.7,253.2z"/>
	<path class="st1" d="M318.6,252.9h-2v3.7c0,0.3,0.1,0.5,0.2,0.7s0.4,0.2,0.7,0.2s0.7,0,1.1,0v2.1c-1.6,0.2-2.7,0-3.3-0.4
		c-0.6-0.5-1-1.3-1-2.5v-3.7h-1.6v-2.2h1.6v-1.8l2.3-0.7v2.5h2V252.9z"/>
	<path class="st1" d="M326.8,250.7h2.3v8.9h-2.3v-1.1c-0.7,0.9-1.7,1.3-2.9,1.3c-1.2,0-2.2-0.5-3.1-1.4c-0.8-0.9-1.3-2-1.3-3.3
		c0-1.3,0.4-2.4,1.3-3.3c0.8-0.9,1.9-1.4,3.1-1.4c1.2,0,2.2,0.4,2.9,1.3V250.7z M322.5,256.9c0.5,0.5,1.1,0.7,1.8,0.7
		c0.7,0,1.3-0.2,1.8-0.7c0.5-0.5,0.7-1.1,0.7-1.8c0-0.7-0.2-1.3-0.7-1.8c-0.5-0.5-1.1-0.7-1.8-0.7s-1.3,0.2-1.8,0.7
		c-0.5,0.5-0.7,1.1-0.7,1.8C321.8,255.8,322.1,256.5,322.5,256.9z"/>
	<path class="st1" d="M337,250.7h2.3v8.9H337v-1c-0.6,0.8-1.4,1.2-2.7,1.2c-1,0-1.8-0.3-2.4-1c-0.6-0.7-1-1.6-1-2.7v-5.5h2.3v5.2
		c0,0.6,0.2,1.1,0.5,1.4c0.3,0.3,0.7,0.5,1.3,0.5c0.6,0,1.1-0.2,1.4-0.6c0.4-0.4,0.5-0.9,0.5-1.7L337,250.7L337,250.7z"/>
	<path class="st1" d="M343.8,252.2c0.2-0.6,0.6-1,1.1-1.3c0.5-0.3,1-0.4,1.7-0.4v2.6c-0.7-0.1-1.3,0.1-1.9,0.4
		c-0.6,0.4-0.8,1-0.8,1.8v4.3h-2.3v-8.9h2.3L343.8,252.2L343.8,252.2z"/>
	<path class="st1" d="M354.2,250.7h2.3v8.9h-2.3v-1.1c-0.7,0.9-1.7,1.3-2.9,1.3c-1.2,0-2.2-0.5-3.1-1.4c-0.9-0.9-1.3-2-1.3-3.3
		c0-1.3,0.4-2.4,1.3-3.3c0.8-0.9,1.9-1.4,3.1-1.4c1.2,0,2.2,0.4,2.9,1.3V250.7z M350,256.9c0.5,0.5,1.1,0.7,1.8,0.7
		c0.7,0,1.3-0.2,1.8-0.7c0.5-0.5,0.7-1.1,0.7-1.8c0-0.7-0.2-1.3-0.7-1.8c-0.5-0.5-1.1-0.7-1.8-0.7c-0.7,0-1.3,0.2-1.8,0.7
		c-0.5,0.5-0.7,1.1-0.7,1.8S349.5,256.5,350,256.9z"/>
	<path class="st1" d="M363.6,250.4c1,0,1.8,0.3,2.4,1c0.6,0.7,1,1.6,1,2.7v5.5h-2.3v-5.2c0-0.6-0.2-1-0.5-1.4
		c-0.3-0.3-0.8-0.5-1.3-0.5c-0.6,0-1.1,0.2-1.4,0.6c-0.4,0.4-0.5,0.9-0.5,1.7v4.8h-2.3v-8.9h2.3v1
		C361.5,250.8,362.4,250.4,363.6,250.4z"/>
	<path class="st1" d="M374,252.9h-2v3.7c0,0.3,0.1,0.5,0.2,0.7c0.2,0.1,0.4,0.2,0.7,0.2c0.3,0,0.7,0,1.1,0v2.1
		c-1.6,0.2-2.7,0-3.3-0.4c-0.6-0.5-1-1.3-1-2.5v-3.7h-1.6v-2.2h1.6v-1.8l2.3-0.7v2.5h2V252.9L374,252.9z"/>
	<path class="st1" d="M377.6,253.2c0,0.2,0.2,0.4,0.5,0.6c0.3,0.1,0.7,0.3,1.2,0.4c0.5,0.1,0.9,0.3,1.4,0.4c0.4,0.2,0.8,0.5,1.2,0.9
		c0.3,0.4,0.5,0.9,0.5,1.5c0,0.9-0.3,1.6-1,2.1c-0.7,0.5-1.5,0.7-2.6,0.7c-1.8,0-3.1-0.7-3.7-2.1l2-1.1c0.3,0.8,0.8,1.2,1.7,1.2
		c0.8,0,1.2-0.3,1.2-0.8c0-0.2-0.2-0.4-0.5-0.6c-0.3-0.1-0.7-0.3-1.2-0.4c-0.4-0.1-0.9-0.3-1.4-0.4c-0.5-0.2-0.8-0.5-1.2-0.8
		c-0.3-0.4-0.5-0.9-0.5-1.5c0-0.9,0.3-1.6,1-2.1c0.6-0.5,1.5-0.8,2.4-0.8c0.7,0,1.4,0.2,2,0.5c0.6,0.3,1.1,0.8,1.4,1.4l-2,1.1
		c-0.3-0.6-0.8-0.9-1.4-0.9c-0.3,0-0.5,0.1-0.7,0.2C377.7,252.8,377.6,253,377.6,253.2z"/>
	<path class="st1" d="M386.6,257.1l-1.3,5h-1.9l0.7-5H386.6z"/>
	<path class="st1" d="M397.2,259.8c-1.3,0-2.5-0.5-3.4-1.4c-0.9-0.9-1.3-2-1.3-3.4s0.4-2.4,1.3-3.4c0.9-0.9,2-1.4,3.4-1.4
		c0.9,0,1.7,0.2,2.4,0.6c0.7,0.4,1.3,1,1.6,1.7l-2,1.2c-0.2-0.4-0.4-0.7-0.8-0.9c-0.4-0.2-0.8-0.3-1.2-0.3c-0.7,0-1.3,0.2-1.7,0.7
		c-0.4,0.5-0.7,1-0.7,1.8c0,0.7,0.2,1.3,0.7,1.7c0.5,0.5,1,0.7,1.7,0.7c0.5,0,0.9-0.1,1.2-0.3c0.4-0.2,0.6-0.5,0.8-0.9l2,1.1
		c-0.4,0.7-0.9,1.3-1.7,1.7C398.9,259.6,398.1,259.8,397.2,259.8z"/>
	<path class="st1" d="M409.1,250.7h2.3v8.9h-2.3v-1.1c-0.7,0.9-1.7,1.3-2.9,1.3c-1.2,0-2.2-0.5-3.1-1.4c-0.8-0.9-1.3-2-1.3-3.3
		c0-1.3,0.4-2.4,1.3-3.3c0.8-0.9,1.9-1.4,3.1-1.4c1.2,0,2.2,0.4,2.9,1.3V250.7z M404.9,256.9c0.5,0.5,1.1,0.7,1.8,0.7
		c0.7,0,1.3-0.2,1.8-0.7c0.5-0.5,0.7-1.1,0.7-1.8c0-0.7-0.2-1.3-0.7-1.8c-0.5-0.5-1.1-0.7-1.8-0.7s-1.3,0.2-1.8,0.7
		c-0.5,0.5-0.7,1.1-0.7,1.8C404.2,255.8,404.4,256.5,404.9,256.9z"/>
	<path class="st1" d="M418.3,249c-1.3-0.1-1.9,0.4-1.9,1.5v0.1h1.9v2.2h-1.9v6.7h-2.3v-6.7h-1.3v-2.2h1.3v-0.1
		c0-1.3,0.3-2.2,1.1-2.9c0.7-0.7,1.7-0.9,3.1-0.9V249z"/>
	<path class="st1" d="M421,256.1c0.3,1.1,1.1,1.7,2.5,1.7c0.9,0,1.5-0.3,2-0.9l1.9,1.1c-0.9,1.3-2.2,1.9-3.9,1.9
		c-1.5,0-2.7-0.4-3.6-1.3c-0.9-0.9-1.3-2-1.3-3.4c0-1.3,0.4-2.5,1.3-3.4c0.9-0.9,2-1.3,3.4-1.3c1.3,0,2.4,0.4,3.2,1.4
		c0.9,0.9,1.3,2,1.3,3.4c0,0.3,0,0.6-0.1,0.9H421z M420.9,254.3h4.6c-0.1-0.6-0.4-1.1-0.8-1.4c-0.4-0.3-0.9-0.4-1.4-0.4
		c-0.6,0-1.1,0.2-1.5,0.5C421.3,253.3,421,253.7,420.9,254.3z"/>
	<path class="st1" d="M431.1,253.2c0,0.2,0.2,0.4,0.5,0.6s0.7,0.3,1.2,0.4c0.5,0.1,0.9,0.3,1.4,0.4c0.5,0.2,0.8,0.5,1.2,0.9
		c0.3,0.4,0.5,0.9,0.5,1.5c0,0.9-0.3,1.6-1,2.1c-0.7,0.5-1.5,0.7-2.6,0.7c-1.8,0-3.1-0.7-3.7-2.1l2-1.1c0.3,0.8,0.8,1.2,1.7,1.2
		c0.8,0,1.2-0.3,1.2-0.8c0-0.2-0.2-0.4-0.5-0.6c-0.3-0.1-0.7-0.3-1.2-0.4c-0.4-0.1-0.9-0.3-1.4-0.4c-0.5-0.2-0.8-0.5-1.2-0.8
		c-0.3-0.4-0.5-0.9-0.5-1.5c0-0.9,0.3-1.6,1-2.1c0.6-0.5,1.5-0.8,2.4-0.8c0.7,0,1.4,0.2,2,0.5c0.6,0.3,1.1,0.8,1.4,1.4l-2,1.1
		c-0.3-0.6-0.8-0.9-1.4-0.9c-0.3,0-0.5,0.1-0.7,0.2C431.2,252.8,431.1,253,431.1,253.2z"/>
	<path class="st1" d="M439.5,259.4c-0.3,0.3-0.7,0.4-1.1,0.4c-0.4,0-0.8-0.1-1.1-0.4c-0.3-0.3-0.4-0.7-0.4-1.1s0.1-0.8,0.4-1.1
		c0.3-0.3,0.7-0.4,1.1-0.4c0.4,0,0.8,0.1,1.1,0.4c0.3,0.3,0.4,0.7,0.4,1.1C440,258.7,439.8,259.1,439.5,259.4z"/>
</g>
<line class="st2" x1="123.4" y1="231.5" x2="449.9" y2="231.5"/>
<g>
	<g>
		<rect x="358.4" y="183.7" class="st3" width="60.1" height="18.4"/>
		<g>
			<path class="st4" d="M368.8,187.9h2V198h-2v-4.2h-3.7v4.2h-2v-10.1h2v4h3.7V187.9z"/>
			<path class="st4" d="M378.7,197.1c-0.7,0.7-1.6,1.1-2.7,1.1c-1.1,0-2-0.4-2.7-1.1c-0.7-0.7-1.1-1.6-1.1-2.7c0-1.1,0.4-2,1.1-2.7
				c0.7-0.7,1.6-1.1,2.7-1.1c1.1,0,2,0.4,2.7,1.1c0.8,0.7,1.1,1.6,1.1,2.7C379.9,195.4,379.5,196.3,378.7,197.1z M374.6,195.8
				c0.4,0.4,0.8,0.6,1.4,0.6c0.6,0,1-0.2,1.4-0.6c0.4-0.4,0.5-0.8,0.5-1.4c0-0.6-0.2-1-0.5-1.4c-0.4-0.4-0.8-0.6-1.4-0.6
				c-0.6,0-1,0.2-1.4,0.6c-0.4,0.4-0.5,0.9-0.5,1.4C374.1,194.9,374.3,195.4,374.6,195.8z"/>
			<path class="st4" d="M386.8,198l-2-3.5h-1.5v3.5h-2v-10.1h4c0.9,0,1.7,0.3,2.4,1c0.7,0.6,1,1.4,1,2.4c0,0.6-0.2,1.2-0.5,1.7
				c-0.4,0.5-0.8,0.9-1.4,1.2l2.2,3.8L386.8,198L386.8,198z M383.2,189.7v3h2c0.4,0,0.7-0.1,1-0.4c0.3-0.3,0.4-0.6,0.4-1.1
				c0-0.4-0.1-0.8-0.4-1c-0.3-0.3-0.6-0.4-1-0.4C385.3,189.7,383.2,189.7,383.2,189.7z"/>
			<path class="st4" d="M391.4,195.1c0.2,0.9,0.9,1.4,2,1.4c0.7,0,1.3-0.2,1.6-0.7l1.5,0.9c-0.7,1-1.8,1.5-3.1,1.5
				c-1.2,0-2.1-0.4-2.9-1.1c-0.7-0.7-1.1-1.6-1.1-2.7c0-1.1,0.3-2,1.1-2.7c0.7-0.7,1.6-1.1,2.7-1.1c1.1,0,1.9,0.4,2.6,1.1
				c0.7,0.7,1,1.6,1,2.7c0,0.2,0,0.5-0.1,0.8C396.8,195.1,391.4,195.1,391.4,195.1z M391.4,193.7h3.7c-0.1-0.5-0.3-0.9-0.7-1.1
				c-0.3-0.2-0.7-0.4-1.1-0.4c-0.5,0-0.9,0.1-1.2,0.4C391.7,192.9,391.5,193.2,391.4,193.7z"/>
			<path class="st4" d="M402.4,198.2c-1.3,0-2.4-0.5-3.3-1.5c-0.9-1-1.3-2.3-1.3-3.7c0-1.5,0.4-2.7,1.3-3.7c0.9-1,1.9-1.5,3.3-1.5
				c0.8,0,1.5,0.2,2.2,0.6c0.7,0.4,1.2,1,1.6,1.7l-1.6,1c-0.2-0.5-0.5-0.8-0.9-1.1c-0.4-0.2-0.8-0.4-1.2-0.4c-0.8,0-1.3,0.3-1.8,0.9
				c-0.5,0.6-0.8,1.4-0.8,2.4c0,1,0.3,1.8,0.8,2.4c0.5,0.6,1,0.9,1.8,0.9c0.5,0,0.8-0.1,1.2-0.4c0.4-0.3,0.6-0.6,0.9-1l1.6,1
				c-0.4,0.7-0.9,1.3-1.6,1.7C404,198,403.2,198.2,402.4,198.2z"/>
			<path class="st4" d="M412.5,190.8h1.9v7.2h-1.9v-0.6c-0.6,0.5-1.3,0.8-2.3,0.8c-1,0-1.8-0.4-2.5-1.1c-0.7-0.7-1-1.6-1-2.7
				c0-1.1,0.3-2,1-2.7c0.7-0.7,1.5-1.1,2.5-1.1c1,0,1.7,0.3,2.3,0.8V190.8z M409.1,195.8c0.4,0.4,0.9,0.6,1.4,0.6
				c0.6,0,1.1-0.2,1.4-0.6c0.4-0.4,0.6-0.9,0.6-1.5c0-0.6-0.2-1.1-0.6-1.5c-0.4-0.4-0.9-0.6-1.4-0.6c-0.6,0-1,0.2-1.4,0.6
				c-0.4,0.4-0.6,0.9-0.6,1.5C408.5,195,408.7,195.4,409.1,195.8z"/>
		</g>
	</g>
	<g>
		<g>
			<path d="M185.1,138.9h-20.7c-0.2,0-0.4,0.1-0.4,0.4v4.9c0,2.2,0.6,4,1.8,5.4c1.2,1.4,2.8,2.1,4.8,2.1c1.7,0,3.1-0.5,4.3-1.6
				c1.2-1,1.9-2.4,2.2-4c0.2-0.5,0.5-0.7,1-0.7l6.8,0.4c0.3,0,0.5,0.1,0.7,0.3c0.2,0.2,0.2,0.4,0.1,0.6c-0.4,4-1.9,7.1-4.5,9.3
				c-2.6,2.2-6.1,3.3-10.6,3.3c-4.7,0-8.4-1.3-11.2-3.9c-2.8-2.6-4.2-6.1-4.2-10.5v-19c0-4.3,1.4-7.8,4.2-10.5c2.8-2.7,6.5-4,11.2-4
				c4.8,0,8.5,1.3,11.3,4c2.7,2.7,4.1,6.2,4.1,10.5V138C186,138.6,185.7,138.9,185.1,138.9z M165.9,120.9c-1.2,1.4-1.8,3.2-1.8,5.4
				v4.8c0,0.2,0.1,0.4,0.4,0.4H177c0.3,0,0.4-0.1,0.4-0.4v-4.8c0-2.2-0.6-4-1.8-5.4c-1.2-1.4-2.8-2.1-4.9-2.1
				C168.7,118.8,167.1,119.5,165.9,120.9z"/>
			<g>
				<path d="M245.4,138.9c-8.3,0-12.4,0-20.7,0c-0.2,0-0.4,0.1-0.4,0.4c0,2,0,3,0,4.9c0,2.2,0.6,4,1.8,5.4c1.2,1.4,2.8,2.1,4.7,2.1
					c1.7,0,3.1-0.5,4.3-1.6c1.2-1,1.8-2.5,2.2-4c0.1-0.5,0.5-0.7,1-0.7c2.7,0.1,4.1,0.2,6.8,0.4c0.3,0,0.5,0.1,0.7,0.3
					c0.1,0.2,0.2,0.4,0.1,0.6c-0.7,3.7-1.9,7.1-4.5,9.3c-2.6,2.2-6.1,3.3-10.6,3.3c-4.7,0-8.4-1.3-11.2-3.9
					c-2.8-2.6-4.2-6.1-4.2-10.5c0-7.6,0-11.4,0-19c0-4.3,1.4-7.8,4.2-10.5c2.8-2.7,6.5-4,11.2-4c4.8,0,8.5,1.3,11.3,4
					c2.7,2.7,4.1,6.2,4.1,10.5c0,4.9,0,7.3,0,12.2C246.3,138.6,246,138.9,245.4,138.9z M226.2,120.9c-1.2,1.4-1.8,3.2-1.8,5.4
					c0,1.9,0,2.9,0,4.8c0,0.2,0.1,0.4,0.4,0.4c5,0,7.5,0,12.5,0c0.2,0,0.4-0.1,0.4-0.4c0-1.9,0-2.9,0-4.9c0-2.2-0.6-4-1.8-5.4
					s-2.8-2.1-4.9-2.1C229,118.8,227.4,119.5,226.2,120.9z"/>
				<path d="M194.7,111.6c0-1.1,0-1.7,0-2.9c0-0.6,0.3-0.9,0.9-0.9c2.7,0,4,0,6.7,0c0.6,0,0.9,0.3,0.9,0.9c0,1.2,0,1.7,0,2.9
					c0,2.9,0,4.3,0,7.1c0,10.3,0,15.4,0,25.7c0,2.4,0.4,4.1,1.3,5.1c0.8,0.9,2.2,1.4,4,1.3c0.3,0,0.5,0,0.8,0c0.6,0,0.9,0.3,0.9,0.9
					c0,2.3,0,3.5,0,5.9c0,0.6-0.3,0.9-0.9,0.9c-1.1,0-1.7,0-2.8,0c-3.9,0-6.8-0.8-8.8-2.3c-2-1.5-3-4.4-3-8.7c0-11.5,0-17.3,0-28.8
					C194.7,115.9,194.7,114.5,194.7,111.6z"/>
			</g>
			<g>
				<path d="M262.3,159.7c-4.5-18.4-6.8-29.4-11.3-47.2c0-0.1,0-0.2-0.1-0.4c0-0.4,0.3-0.6,0.8-0.7c3.1-0.1,4.6-0.3,7.7-0.5
					c0.6,0,0.9,0.2,1,0.8c2.6,12.6,4,21.2,6.6,34.3c0.1,0.2,0.1,0.3,0.2,0.3c0.1,0,0.1-0.1,0.2-0.3c2.6-12.9,4.1-22.2,6.8-35.6
					c0.1-0.6,0.5-0.9,1-1c3.2-0.3,4.7-0.4,7.9-0.8c0.3,0,0.5,0,0.7,0.2c0.2,0.2,0.2,0.4,0,0.8c-4.6,19.7-7.1,32.9-11.6,50.8
					c-0.1,0.6-0.4,0.8-1,0.7c-3.2-0.3-4.8-0.5-8.1-0.7C262.7,160.5,262.4,160.2,262.3,159.7z"/>
				<path d="M316.8,104.2c1.8,1.6,3.1,3.6,3.9,6.9c0.5,2.3,0.8,5,0.8,8.2c0.1,20.5,0.2,33.9,0.3,48c0,0.7-0.3,0.9-1,0.8
					c-2.9-0.8-4.5-1.2-7.7-2c-0.7-0.2-1.1-0.5-1.1-1.2c0-0.9,0-1.4,0-2.3c0-0.1,0-0.3-0.2-0.4c-0.1-0.1-0.3-0.1-0.4,0
					c-2.5,2.2-5.7,3.1-10,2.3c-3.6-0.7-6.7-2.4-9.4-5.1c-2.7-2.7-4.1-6.8-4.1-12.7c0-6.2,1.7-10.7,5-13.8c3.3-3,7.7-4.8,12.9-5.4
					c2.1-0.2,3.2-0.4,5.7-0.7c0.3,0,0.4-0.2,0.4-0.6c0-1.6,0-2.4,0-4c0-1.6-0.1-3-0.4-4.3c-0.3-1.7-0.8-3.4-1.7-4.4
					c-1.4-1.7-3-2-4.9-1.6c-1.5,0.4-2.8,1.3-3.9,2.8c-1.1,1.5-1.8,3.4-1.9,5.5c0,0.8-0.3,1.2-0.9,1.3c-3,0.3-4.6,0.4-7.7,0.6
					c-0.6,0-1-0.3-1-1c0.2-4.6,2-8.6,4.9-11.9c2.9-3.3,6.5-5.3,10.6-6.5c1.8-0.5,3.7-0.6,5.4-0.6C312.9,102,315,102.7,316.8,104.2z
					 M309.1,154.5c1.9-1.5,2.8-3.9,2.8-7.4c0-3.6,0-5.4,0-9.2c0-0.4-0.1-0.5-0.4-0.5c-2.6,0-3.7,0.1-6,0.1c-2.5,0-4.4,0.9-5.9,2.6
					c-1.5,1.7-2.3,4-2.3,7.2c0,2.7,0.5,4.8,1.7,6.3c1.1,1.5,2.6,2.4,4.5,2.7C305.6,156.6,307.2,156,309.1,154.5z"/>
				<path d="M350.8,98.3c-2.6,0.5-3.8,0.8-6.3,1.4c-0.2,0.1-0.4,0.3-0.4,0.7c0,17.1,0.1,30.8,0.1,49.6c0,4.5,0.2,7.5,1.1,9.1
					c0.8,1.6,2.3,2.3,4.1,2.3c0.3,0,0.5,0,0.8,0c0.6,0,0.9,0.5,0.9,1.4c0,3.5,0,5.1,0,7.7c0,0.7-0.3,1-0.9,1c-1.1,0-1.7-0.1-2.8-0.2
					c-3.8-0.4-8.3-1.8-10.1-4.1c-1.1-1.3-2-3-2.5-5.6c-0.4-2-0.5-4.4-0.6-7.4c-0.1-18.7-0.1-33.4-0.2-51.8c0-0.4-0.1-0.5-0.4-0.5
					c-1.4,0.4-2.5,0.5-3.9,0.9c-0.6,0.2-0.9-0.2-0.9-1.1c0-2.7,0-4,0-6.4c0-0.8,0.3-1.3,0.9-1.5c1.4-0.4,2.5-0.6,3.9-1
					c0.2-0.1,0.3-0.3,0.3-0.6c0-1.4,0-6.5,0-7.7c0-0.7,0.3-1.1,0.9-1.3c2.5-0.8,5.8-1.3,8.3-1.9c0.6-0.1,0.9,0.1,0.9,0.8
					c0,1.3,0,6.4,0,7.9c0,0.3,0.1,0.4,0.4,0.4c2.5-0.6,3.7-1,6.3-1.4c0.6-0.1,0.9,0.2,0.9,1c0,2.5,0,3.8,0,6.8
					C351.8,97.7,351.5,98.2,350.8,98.3z"/>
			</g>
			<path d="M371.7,136.4c5.2-0.1,33.9-0.1,40.2-0.2l0.6,0c1.3,0,2.4-1.3,2.4-2.6l-0.2-22.6c-0.1-8.2-2.9-15-8.1-20
				c-5.2-5-12.3-7.5-21-7.3c-0.1,0-0.2,0-0.3,0c-7.6,1-14.8,4.2-19.6,10.1c-4.7,5.7-7,12.3-6.9,19.8c0.1,14.2,0.2,22.1,0.4,35.7
				c0,7.3,2.3,13.5,7,19.1c5.1,6,12.4,8.6,20,9.2c0,0,0.1,0,0.2,0h0.1c7.8-0.2,14.3-1.9,19.1-6.2c4.6-4.1,7.5-9.6,8.7-17
				c0.1-0.7,0-1.2-0.5-1.6c-0.4-0.4-0.9-0.5-1.5-0.5l-9.1-0.2c-0.8,0-1.7,0.3-2.2,1.9c-0.8,3.7-2.5,6.3-5.2,8.7
				c-2.6,2.3-5.8,3.2-9.5,3.2h-0.2c-0.1,0-0.1,0-0.2,0v0c-3.8-0.3-7.9-1.4-10.6-4.7c-2.7-3.2-4-7.2-4-11.9l0-12.6
				C371.3,136.5,371.5,136.4,371.7,136.4z M374.9,101c2.6-3.3,6.6-5.2,10.4-5.6l0,0c0.1,0,0.2,0,0.3,0c4.5-0.1,8.2,1.5,11.1,4.5
				c2.8,3.1,4.3,7.2,4.3,12.3l0.1,12.1c0,0.3-0.1,0.5-0.4,0.5c-5.3,0.1-21.8,0.5-25.5,0.7l-3.7,0.1c-0.3,0-0.4-0.1-0.4-0.5
				l-0.1-11.7C371,108.4,372.3,104.3,374.9,101z"/>
		</g>
	</g>
</g>
</svg>
